werk.statt.codes – Segregation in Vienna’s primary schools?
…
# only 257 out of 263 primary schools with destination data;
# 6 schools still without 'graduates'
length(unique(df_destination_data$properties_skz_vj))

[1] 260

Code

df_destination_data

# A tibble: 4,970 × 17
   type    id            geome…¹ prope…² prope…³ prope…⁴ prope…⁵ prope…⁶ prope…⁷ prope…⁸ prope…⁹ prope…˟ prope…˟ properti…˟ properti…˟ prope…˟ schoo…˟
   <chr>   <chr>         <lgl>   <chr>   <chr>   <chr>   <chr>   <chr>   <chr>   <chr>   <chr>   <chr>     <int>      <dbl>      <dbl> <chr>   <glue> 
 1 Feature ATLAS_SCHULE… NA      923081  01      923046  05a     NMSA    Bundes… 1230    Wien    Anton-…      16 1812226.97 6130263.31 Neue M… https:…
 2 Feature ATLAS_SCHULE… NA      923081  01      923052  02a     NMSH    Mittel… 1230    Wien    Bendag…       9 1810895.04 6132223.34 Neue M… https:…
 3 Feature ATLAS_SCHULE… NA      923081  01      923042  02a     NMSH    Mittel… 1230    Wien    Dirmhi…       6 1812595.22 6129624.41 Neue M… https:…
 4 Feature ATLAS_SCHULE… NA      923081  01      923066  05      AHS     Bundes… 1230    Wien    Anton …       0 1816122.4  6131865.58 AHS-Un… https:…
 5 Feature ATLAS_SCHULE… NA      923081  01      923012  02a     NMSH    Mittel… 1230    Wien    Steine…       0 1813467.1  6131038.23 Neue M… https:…
 6 Feature ATLAS_SCHULE… NA      923081  01      317036  05      AHS     Bundes… 2380    Percht… Rosegg…       0 1810131.09 6127026.77 AHS-Un… https:…
 7 Feature ATLAS_SCHULE… NA      923081  01      914046  05a     NMSA    Bundes… 1140    Wien    Steinb…       0 1814655.29 6140990.85 Neue M… https:…
 8 Feature ATLAS_SCHULE… NA      923081  01      923022  02a     NMSH    Mittel… 1230    Wien    Anton …       0 1816525.01 6131994.97 Neue M… https:…
 9 Feature ATLAS_SCHULE… NA      923081  01      923072  02a     NMSH    Privat… 1230    Wien    Franz …       0 1810435.84 6132934.36 Neue M… https:…
10 Feature ATLAS_SCHULE… NA      923081  01      923081  WG      VS      Volkss… 1230    Wien    Korbga…       0 1811725.88 6129568.48 Wieder… https:…
# … with 4,960 more rows, and abbreviated variable names ¹​geometry, ²​properties_skz_vj, ³​properties_ipub2_typ_vj, ⁴​properties_skz_laufend,
#   ⁵​properties_ipub2_typ_laufend, ⁶​properties_karto_typ, ⁷​properties_bezeichnung, ⁸​properties_plz, ⁹​properties_ort, ˟​properties_str,
#   ˟​properties_anzahl, ˟​properties_x_s2, ˟​properties_y_s2, ˟​properties_ipub2_bezeichnung, ˟​school_link
…
df_difference

# A tibble: 33,670 × 5
# Groups:   pair_indicator [33,670]
   pair_indicator school_1 school_2        difference         diff_abs
   <chr>             <dbl> <chr>                <dbl>            <dbl>
 1 901011-901021    901011 901021    2.09846650525e-2 2.09846650525e-2
 2 901011-901031    901011 901031   -1.42464498397e-1 1.42464498397e-1
 3 901011-902011    901011 902011    7.72366444969e-3 7.72366444969e-3
 4 901011-902021    901011 902021    4.07431551499e-1 4.07431551499e-1
 5 901011-902031    901011 902031    5.59675141243e-1 5.59675141243e-1
 6 901011-902051    901011 902051    5.35426507363e-1 5.35426507363e-1
 7 901011-902071    901011 902071    4.10755388157e-1 4.10755388157e-1
 8 901011-902081    901011 902081    5.89129164231e-1 5.89129164231e-1
 9 901011-902091    901011 902091    1.46297948260e-1 1.46297948260e-1
10 901011-902101    901011 902101    5.10508474576e-1 5.10508474576e-1
# … with 33,660 more rows
…
df_main <- df_main %>%
  mutate(diff_factor = map2_dbl(
    school_1_n_rel, school_2_n_rel,
    function(x, y) pmax(x, y) / pmin(x, y)
  ))

Code

# Here the full table with the data
df_main

# A tibble: 32,896 × 21
# Groups:   pair_indicator [32,896]
   pair_ind…¹ schoo…² schoo…³        difference         diff_abs school…⁴ school_1…⁵ school_1…⁶ school…⁷ school_2…⁸ school_2…⁹ addre…˟ addre…˟ schoo…˟
   <chr>        <dbl>   <dbl>             <dbl>            <dbl> <list>        <dbl>      <dbl> <list>        <dbl>      <dbl> <chr>   <chr>   <chr>  
 1 901011-90…  901011  901021 -1.14942528736e-2 1.14942528736e-2 <tibble> 48.2135351 16.3686268 <tibble> 48.2071269 16.3787884 Volkss… Volkss… öffent…
 2 901011-90…  901011  901031 -1.59920039980e-1 1.59920039980e-1 <tibble> 48.2135351 16.3686268 <tibble> 48.2115609 16.3692501 Volkss… Privat… öffent…
 3 901011-90…  901011  902011  2.04342273308e-2 2.04342273308e-2 <tibble> 48.2135351 16.3686268 <tibble> 48.1964153 16.4433338 Volkss… Volkss… öffent…
 4 901011-90…  901011  902021  4.07682234832e-1 4.07682234832e-1 <tibble> 48.2135351 16.3686268 <tibble> 48.2149026 16.3876769 Volkss… Volkss… öffent…
 5 901011-90…  901011  902031  4.59986987638e-1 4.59986987638e-1 <tibble> 48.2135351 16.3686268 <tibble> 48.2221631 16.3848147 Volkss… Volkss… öffent…
 6 901011-90…  901011  902051  4.18255578093e-1 4.18255578093e-1 <tibble> 48.2135351 16.3686268 <tibble> 48.2155407 16.3773783 Volkss… Volkss… öffent…
 7 901011-90…  901011  902071  6.59100829332e-2 6.59100829332e-2 <tibble> 48.2135351 16.3686268 <tibble> 48.2186668 16.3853998 Volkss… Volkss… öffent…
 8 901011-90…  901011  902081  4.66073414905e-1 4.66073414905e-1 <tibble> 48.2135351 16.3686268 <tibble> 48.2205238 16.4049726 Volkss… Volkss… öffent…
 9 901011-90…  901011  902091  8.62068965517e-2 8.62068965517e-2 <tibble> 48.2135351 16.3686268 <tibble> 48.22407   16.3847968 Volkss… Volkss… öffent…
10 901011-90…  901011  902101  3.49137931034e-1 3.49137931034e-1 <tibble> 48.2135351 16.3686268 <tibble> 48.223532  16.402895  Volkss… Volkss… öffent…
# … with 32,886 more rows, 7 more variables: school_2_erhalter <chr>, school_erhalter_indicator <chr>, erhalter_type <chr>, school_1_n_rel <dbl>,
#   school_2_n_rel <dbl>, tooltip <chr>, diff_factor <dbl>, and abbreviated variable names ¹​pair_indicator, ²​school_1, ³​school_2, ⁴​school_1_details,
#   ⁵​school_1_lat, ⁶​school_1_long, ⁷​school_2_details, ⁸​school_2_lat, ⁹​school_2_long, ˟​address1, ˟​address2, ˟​school_1_erhalter
…
df_main %>%
  select(school_1, school_2, distance)

# A tibble: 32,896 × 3
   school_1 school_2        distance
      <dbl>    <dbl>           <dbl>
 1   901011   901021 1.32212586993e3
 2   901011   901031 2.21981756970e2
 3   901011   902011 8.51491714061e3
 4   901011   902021 2.12567089786e3
 5   901011   902031 2.02397252847e3
 6   901011   902051 9.97484473991e2
 7   901011   902071 1.94594081999e3
 8   901011   902081 4.11426308218e3
 9   901011   902091 2.12276126427e3
10   901011   902101 3.96130726004e3
# … with 32,886 more rows
…
