werk.statt.codes - State legislature elections and vaccination rates
…
#combine links and names to a tibble
df_res <- tibble(links=res_links, names=res_names)

df_mun <- df_res %>% 
  #remove aggregate categories which are spelled with capital letters
  filter(!str_detect(links, regex("[A-Z]"))) %>% 
  #complete links to get entire address
  mutate(link_complete=glue::glue("https://www.ktn.gv.at/wahlen/ltwahl2023/{links}"))

Here the dataframe with all sub-page links.

df_mun 

# A tibble: 132 × 3
   links             names              link_complete                           
   <chr>             <chr>              <glue>                                  
 1 lt2023_20101.html Klagenfurt am Ws.  https://www.ktn.gv.at/wahlen/ltwahl2023…
 2 lt2023_20402.html Ebenthal           https://www.ktn.gv.at/wahlen/ltwahl2023…
 3 lt2023_20403.html Feistritz i. R.    https://www.ktn.gv.at/wahlen/ltwahl2023…
 4 lt2023_20405.html Ferlach            https://www.ktn.gv.at/wahlen/ltwahl2023…
 5 lt2023_20409.html Grafenstein        https://www.ktn.gv.at/wahlen/ltwahl2023…
 6 lt2023_20412.html Keutschach am See  https://www.ktn.gv.at/wahlen/ltwahl2023…
 7 lt2023_20414.html Köttmannsdorf      https://www.ktn.gv.at/wahlen/ltwahl2023…
 8 lt2023_20415.html Krumpendorf am Ws. https://www.ktn.gv.at/wahlen/ltwahl2023…
 9 lt2023_20416.html Ludmannsdorf       https://www.ktn.gv.at/wahlen/ltwahl2023…
10 lt2023_20442.html Magdalensberg      https://www.ktn.gv.at/wahlen/ltwahl2023…
# ℹ 122 more rows
…
