werk.statt.codes – Austrian Parliament: MPs transparency and conflict of interest report
…
In the next step, I group the data by the row_indicator and combine the different text parts with the same row indicator into one string. As a result, we get a dataframe where each row contains one row of the table (including those parts after the line break). Hooray!

Code

df_rows <- df_linebreaks %>% 
  group_by(row_indicator) %>%
    summarise(text_combined = paste(text, collapse = " ")) %>%
    mutate(text_combined = text_combined %>% str_trim() %>% str_squish())

Code

df_rows

# A tibble: 21 × 2
   row_indicator text_combined                                                  
           <dbl> <chr>                                                          
 1             1 Nationalrat - (i) Liste gemäß § 9 Bezügebegrenzungs-BVG Stand …
 2             2 Bekanntgabe von Tätigkeiten und Offenlegung von Einkommen gemä…
 3             3 52688 (i) EINKOMMENSKATEGORIE Dipl.-Ing. Nikolaus Berlakovich …
 4             4 2020: Meldefrist endet am 30.06.2021                           
 5             5 (i) LEITENDE STELLUNG IN AKTIENGESELLSCHAFT, GESELLSCHAFT MIT …
 6             6 Rechtsträger Leitende Stellung                                 
 7             7 Dr. Lorenz Karall-Stiftung, Eisenstadt Ablauf der Meldefrist: …
 8             8 Margaretha Lupac Stiftung Ersatzmitglied im Stiftungskuratoriu…
 9             9 Polster-Stiftung Vorsitzender des Stiftungsrates *             
10            10 (i) SONSTIGE TÄTIGKEITEN, AUS DENEN VERMÖGENSVORTEILE ERZIELT …
# … with 11 more rows
…
