28th Austrian National Council: Prior Experiences as MPs. – werk.statt.codes
…
8.0.1 table

df_experience <- df_days_in_parl %>%
filter(wahlpartei_standard %in% c("GRÜNE", "ÖVP", "SPÖ", "FPÖ", "NEOS")) %>%
group_by(wahlpartei_standard, legis_period) %>%
summarise(
    median_days_in_parl=median(days_in_parl, na.rm=T),
    mean_days_in_parl=mean(days_in_parl, na.rm=T),
    sd_days_in_parl=sd(days_in_parl, na.rm=T)
    )

df_experience    
## # A tibble: 84 × 5
## # Groups:   wahlpartei_standard [5]
##    wahlpartei_standard legis_period median_days_in_parl mean_days_in_parl
##    <chr>                      <dbl>               <dbl>             <dbl>
##  1 FPÖ                            8               1178              1186 
##  2 FPÖ                            9               1137              1137 
##  3 FPÖ                           10               2588.             2463.
##  4 FPÖ                           11                351              1325.
##  5 FPÖ                           12               1462              2554.
##  6 FPÖ                           13               1652.             1694.
##  7 FPÖ                           14               3112.             3156.
##  8 FPÖ                           15                  0              1372 
##  9 FPÖ                           16               1444              2079.
## 10 FPÖ                           17               1280              1287.
## # ℹ 74 more rows
## # ℹ 1 more variable: sd_days_in_parl <dbl>
…
